Building DAG of jobs...
Provided cores: 1
Rules claiming more threads will be scaled down.
Job counts:
	count	jobs
	1	choix_snp
	1	kasper
	2

rule choix_snp:
    input: /home/mmohamed/Documents/Donnee_serveur/bergeron_et_bakour/Bam_parent_cns_0.3.vcf
    output: /home/mmohamed/Documents/Donnee_serveur/bergeron_et_bakour/SNPsansProches.vcf, /home/mmohamed/Documents/Donnee_serveur/bergeron_et_bakour/SNPsansProches_seuil.vcf
    jobid: 1

Finished job 1.
1 of 2 steps (50%) done

rule kasper:
    input: /home/mmohamed/Documents/Donnee_serveur/bergeron_et_bakour/SNPsansProches.vcf, /home/mmohamed/Documents/Donnee_serveur/bergeron_et_bakour/SNPsansProches_seuil.vcf
    output: /home/mmohamed/Documents/Donnee_serveur/bergeron_et_bakour/Kasp/all_primers_triplets.csv, /home/mmohamed/Documents/Donnee_serveur/bergeron_et_bakour/all_best_primers_triplets.csv, /home/mmohamed/Documents/Donnee_serveur/bergeron_et_bakour/last_all_best_primers_triplets.csv
    jobid: 0

Finished job 0.
2 of 2 steps (100%) done
