Building DAG of jobs...
Using shell: /bin/bash
Provided cores: 1
Rules claiming more threads will be scaled down.
Job counts:
	count	jobs
	1	choix_snp
	1

rule choix_snp:
    input: /mnt/nas_eic/gafl01/home/gafl/momohamed/Test/bergon_et_bakour/Bakour_vs_Ppv2ext_cns_0.3.vcf
    jobid: 0

Error in rule choix_snp:
    jobid: 0

RuleException:
CalledProcessError in line 19 of /mnt/nas_eic/gafl01/home/gafl/momohamed/scripts_ready_change/pipline.snk:
Command ' set -euo pipefail;  ln -n choix_snp.py /mnt/nas_eic/gafl01/home/gafl/momohamed/Test/bergon_et_bakour;cd /mnt/nas_eic/gafl01/home/gafl/momohamed/Test/bergon_et_bakour; 
        python choix_snp.py 20 Bakour_vs_Ppv2ext_cns_0.3.vcf ' returned non-zero exit status 1
  File "/mnt/nas_eic/gafl01/home/gafl/momohamed/scripts_ready_change/pipline.snk", line 19, in __rule_choix_snp
  File "/usr/lib/python3.5/concurrent/futures/thread.py", line 55, in run
Shutting down, this might take some time.
Exiting because a job execution failed. Look above for error message
Complete log: /mnt/nas_eic/gafl01/home/gafl/momohamed/scripts_ready_change/.snakemake/log/2019-07-12T163815.077717.snakemake.log
