Building DAG of jobs...
Provided cores: 1
Rules claiming more threads will be scaled down.
Job counts:
	count	jobs
	1	choix_snp
	1	kasper
	2

rule choix_snp:
    input: /home/mmohamed/Documents/Donnee_serveur/bergeron_et_bakour/Bam_parent_cns_0.3.vcf
    output: /home/mmohamed/Documents/Donnee_serveur/bergeron_et_bakour/SNPsansProches.vcf
    jobid: 1

Error in rule choix_snp:
    jobid: 1
    output: /home/mmohamed/Documents/Donnee_serveur/bergeron_et_bakour/SNPsansProches.vcf

RuleException:
CalledProcessError in line 64 of /home/mmohamed/Documents/Donnee_serveur/pipline_choix_snp/scripts_ready_change/pipline.snk:
Command ' set -euo pipefail;  ln -n script_python/choix_snp.py /home/mmohamed/Documents/Donnee_serveur/bergeron_et_bakour || echo lien [OK];cd /home/mmohamed/Documents/Donnee_serveur/bergeron_et_bakour; echo Bam_parent_cns_0.3.vcf ;
        python choix_snp.py 70 Bam_parent_cns_0.3.vcf 0.3 ;
        rm choix_snp.py ' returned non-zero exit status 1.
  File "/home/mmohamed/Documents/Donnee_serveur/pipline_choix_snp/scripts_ready_change/pipline.snk", line 64, in __rule_choix_snp
  File "/usr/lib/python3.6/concurrent/futures/thread.py", line 56, in run
Will exit after finishing currently running jobs.
Exiting because a job execution failed. Look above for error message
Complete log: .snakemake/log/2019-07-22T151843.518906.snakemake.log
